tb/wave.vcd
$date
	Wed Jul 22 13:28:38 2026
$end
$version
	Icarus Verilog
$end
$timescale
	1ps
$end
$scope module tb_precision_sparse_attn $end
$var wire 1 ! wb_valid_o $end
$var wire 16 " wb_data_o [15:0] $end
$var wire 16 # wb_addr_o [15:0] $end
$var wire 1 $ tile_done_o $end
$var wire 16 % qkv_addr_o [15:0] $end
$var wire 2 & precision_sel_o [1:0] $end
$var wire 8 ' power_gate_o [7:0] $end
$var wire 1 ( overflow_flag_o $end
$var wire 1 ) mem_ren_o $end
$var wire 8 * mac_en_o [7:0] $end
$var wire 1 + busy_o $end
$var wire 32 , acc_out_o [31:0] $end
$var parameter 32 - ADDR_WIDTH $end
$var parameter 32 . DATA_WIDTH $end
$var parameter 32 / MAC_LANES $end
$var reg 2 0 accuracy_target_reg [1:0] $end
$var reg 1 1 clk $end
$var reg 16 2 qkv_data_i [15:0] $end
$var reg 1 3 rst_n $end
$var reg 8 4 sparsity_thresh_reg [7:0] $end
$var reg 1 5 start $end
$var reg 1 6 tile_valid_i $end
$scope module dut $end
$var wire 32 7 acc_out_o [31:0] $end
$var wire 2 8 accuracy_target_reg [1:0] $end
$var wire 1 1 clk $end
$var wire 8 9 mac_en_o [7:0] $end
$var wire 1 ( overflow_flag_o $end
$var wire 8 : power_gate_o [7:0] $end
$var wire 2 ; precision_sel_o [1:0] $end
$var wire 16 < qkv_data_i [15:0] $end
$var wire 1 3 rst_n $end
$var wire 8 = sparsity_thresh_reg [7:0] $end
$var wire 1 5 start $end
$var wire 1 6 tile_valid_i $end
$var wire 16 > wb_addr_o [15:0] $end
$var wire 1 ! wb_valid_o $end
$var wire 16 ? wb_data_o [15:0] $end
$var wire 1 $ tile_done_o $end
$var wire 8 @ skip_mask_w [7:0] $end
$var wire 8 A score_est_w [7:0] $end
$var wire 16 B routed_data_w [15:0] $end
$var wire 16 C qkv_addr_o [15:0] $end
$var wire 2 D precision_sel_w [1:0] $end
$var wire 8 E power_gate_w [7:0] $end
$var wire 1 F overflow_flag_w $end
$var wire 1 G outlier_mask_w $end
$var wire 1 ) mem_ren_o $end
$var wire 8 H mac_en_w [7:0] $end
$var wire 2 I final_precision_w [1:0] $end
$var wire 1 + busy_o $end
$var wire 32 J acc_out_w [31:0] $end
$var parameter 32 K ADDR_WIDTH $end
$var parameter 32 L DATA_WIDTH $end
$var parameter 32 M MAC_LANES $end
$scope module i_accumulator $end
$var wire 1 1 clk $end
$var wire 1 3 rst_n $end
$var wire 2 N precision_sel_i [1:0] $end
$var wire 1 F overflow_flag_o $end
$var wire 32 O acc_out_o [31:0] $end
$var parameter 32 P MAC_LANES $end
$var reg 32 Q acc_q [31:0] $end
$var reg 36 R err_comp [35:0] $end
$var reg 36 S final_acc [35:0] $end
$var reg 1 F ovf_q $end
$var reg 36 T sum [35:0] $end
$scope begin $ivl_for_loop0 $end
$var integer 32 U i [31:0] $end
$upscope $end
$upscope $end
$scope module i_fsm $end
$var wire 2 V accuracy_target_reg [1:0] $end
$var wire 1 1 clk $end
$var wire 1 F overflow_flag_i $end
$var wire 2 W precision_sel_o [1:0] $end
$var wire 1 3 rst_n $end
$var wire 8 X sparsity_thresh_reg [7:0] $end
$var wire 1 5 start $end
$var wire 1 6 tile_valid_i $end
$var wire 8 Y skip_mask_i [7:0] $end
$var wire 8 Z score_est_i [7:0] $end
$var wire 1 [ last_tile $end
$var parameter 32 \ ADDR_WIDTH $end
$var parameter 32 ] MAC_LANES $end
$var reg 1 + busy_o $end
$var reg 8 ^ mac_en_o [7:0] $end
$var reg 1 ) mem_ren_o $end
$var reg 8 _ power_gate_o [7:0] $end
$var reg 2 ` precision_sel_d [1:0] $end
$var reg 2 a precision_sel_q [1:0] $end
$var reg 16 b qkv_addr_o [15:0] $end
$var reg 3 c state_d [2:0] $end
$var reg 3 d state_q [2:0] $end
$var reg 4 e tile_count_d [3:0] $end
$var reg 4 f tile_count_q [3:0] $end
$var reg 1 $ tile_done_o $end
$var reg 4 g timer_d [3:0] $end
$var reg 4 h timer_q [3:0] $end
$var reg 1 ! wb_valid_o $end
$upscope $end
$scope module i_mac_array $end
$var wire 1 1 clk $end
$var wire 8 i mac_en_i [7:0] $end
$var wire 1 3 rst_n $end
$var wire 16 j q_data_i [15:0] $end
$var wire 2 k precision_sel_i [1:0] $end
$var wire 16 l k_data_i [15:0] $end
$var parameter 32 m DATA_WIDTH $end
$var parameter 32 n MAC_LANES $end
$scope begin mac_lane_gen[0] $end
$var wire 16 o op_a_16 [15:0] $end
$var wire 16 p op_b_16 [15:0] $end
$var parameter 2 q i $end
$var reg 32 r mac_out_q [31:0] $end
$var reg 32 s result_16 [31:0] $end
$var reg 32 t result_4 [31:0] $end
$var reg 32 u result_8 [31:0] $end
$upscope $end
$scope begin mac_lane_gen[1] $end
$var wire 16 v op_a_16 [15:0] $end
$var wire 16 w op_b_16 [15:0] $end
$var parameter 2 x i $end
$var reg 32 y mac_out_q [31:0] $end
$var reg 32 z result_16 [31:0] $end
$var reg 32 { result_4 [31:0] $end
$var reg 32 | result_8 [31:0] $end
$upscope $end
$scope begin mac_lane_gen[2] $end
$var wire 16 } op_a_16 [15:0] $end
$var wire 16 ~ op_b_16 [15:0] $end
$var parameter 3 !" i $end
$var reg 32 "" mac_out_q [31:0] $end
$var reg 32 #" result_16 [31:0] $end
$var reg 32 $" result_4 [31:0] $end
$var reg 32 %" result_8 [31:0] $end
$upscope $end
$scope begin mac_lane_gen[3] $end
$var wire 16 &" op_a_16 [15:0] $end
$var wire 16 '" op_b_16 [15:0] $end
$var parameter 3 (" i $end
$var reg 32 )" mac_out_q [31:0] $end
$var reg 32 *" result_16 [31:0] $end
$var reg 32 +" result_4 [31:0] $end
$var reg 32 ," result_8 [31:0] $end
$upscope $end
$scope begin mac_lane_gen[4] $end
$var wire 16 -" op_a_16 [15:0] $end
$var wire 16 ." op_b_16 [15:0] $end
$var parameter 4 /" i $end
$var reg 32 0" mac_out_q [31:0] $end
$var reg 32 1" result_16 [31:0] $end
$var reg 32 2" result_4 [31:0] $end
$var reg 32 3" result_8 [31:0] $end
$upscope $end
$scope begin mac_lane_gen[5] $end
$var wire 16 4" op_a_16 [15:0] $end
$var wire 16 5" op_b_16 [15:0] $end
$var parameter 4 6" i $end
$var reg 32 7" mac_out_q [31:0] $end
$var reg 32 8" result_16 [31:0] $end
$var reg 32 9" result_4 [31:0] $end
$var reg 32 :" result_8 [31:0] $end
$upscope $end
$scope begin mac_lane_gen[6] $end
$var wire 16 ;" op_a_16 [15:0] $end
$var wire 16 <" op_b_16 [15:0] $end
$var parameter 4 =" i $end
$var reg 32 >" mac_out_q [31:0] $end
$var reg 32 ?" result_16 [31:0] $end
$var reg 32 @" result_4 [31:0] $end
$var reg 32 A" result_8 [31:0] $end
$upscope $end
$scope begin mac_lane_gen[7] $end
$var wire 16 B" op_a_16 [15:0] $end
$var wire 16 C" op_b_16 [15:0] $end
$var parameter 4 D" i $end
$var reg 32 E" mac_out_q [31:0] $end
$var reg 32 F" result_16 [31:0] $end
$var reg 32 G" result_4 [31:0] $end
$var reg 32 H" result_8 [31:0] $end
$upscope $end
$upscope $end
$scope module i_outlier_router $end
$var wire 2 I" base_precision_i [1:0] $end
$var wire 1 1 clk $end
$var wire 8 J" outlier_thresh_i [7:0] $end
$var wire 16 K" qkv_data_i [15:0] $end
$var wire 1 3 rst_n $end
$var parameter 32 L" DATA_WIDTH $end
$var reg 2 M" final_precision_o [1:0] $end
$var reg 1 N" outlier_detected $end
$var reg 1 G outlier_mask_o $end
$var reg 16 O" routed_data_o [15:0] $end
$upscope $end
$scope module i_sparsity_predictor $end
$var wire 1 1 clk $end
$var wire 16 P" qkv_data_i [15:0] $end
$var wire 1 3 rst_n $end
$var wire 8 Q" sparsity_thresh_reg [7:0] $end
$var wire 9 R" sum_abs [8:0] $end
$var wire 8 S" abs_upper [7:0] $end
$var wire 8 T" abs_lower [7:0] $end
$var parameter 32 U" DATA_WIDTH $end
$var parameter 32 V" MAC_LANES $end
$var reg 8 W" score_est_o [7:0] $end
$var reg 8 X" skip_mask_o [7:0] $end
$upscope $end
$upscope $end
$scope begin $ivl_for_loop1 $end
$var integer 32 Y" i [31:0] $end
$upscope $end
$scope begin $ivl_for_loop2 $end
$var integer 32 Z" i [31:0] $end
$upscope $end
$scope begin $ivl_for_loop3 $end
$var integer 32 [" i [31:0] $end
$scope begin $ivl_for_loop4 $end
$var integer 32 \" j [31:0] $end
$upscope $end
$upscope $end
$scope task reset_dut $end
$upscope $end
$upscope $end
$enddefinitions $end
$comment Show the parameter values. $end
$dumpall
b1000 V"
b10000 U"
b10000 L"
b111 D"
b110 ="
b101 6"
b100 /"
b11 ("
b10 !"
b1 x
b0 q
b1000 n
b10000 m
b1000 ]
b10000 \
b1000 P
b1000 M
b10000 L
b10000 K
b1000 /
b10000 .
b10000 -
$end
#0
$dumpvars
b0 \"
b0 ["
b0 Z"
b0 Y"
b0 X"
b0 W"
bx T"
bx S"
bx R"
b0 Q"
bx P"
b0 O"
0N"
b1 M"
bx K"
b11001000 J"
b10 I"
b0 H"
b0 G"
b0 F"
b0 E"
b0 C"
b0 B"
b0 A"
b0 @"
b0 ?"
b0 >"
b0 <"
b0 ;"
b0 :"
b0 9"
b0 8"
b0 7"
b0 5"
b0 4"
b0 3"
b0 2"
b0 1"
b0 0"
b0 ."
b0 -"
b0 ,"
b0 +"
b0 *"
b0 )"
b0 '"
b0 &"
b0 %"
b0 $"
b0 #"
b0 ""
b0 ~
b0 }
b0 |
b0 {
b0 z
b0 y
b0 w
b0 v
b0 u
b0 t
b0 s
b0 r
b0 p
b0 o
b0 l
b1 k
b0 j
b0 i
b0 h
b0 g
b0 f
b0 e
b0 d
b0 c
b0 b
b10 a
b10 `
b0 _
b0 ^
0[
b0 Z
b0 Y
b0 X
b10 W
b0 V
b1000 U
b0 T
b100 S
b100 R
b0 Q
b0 O
b1 N
b0 J
b1 I
b0 H
0G
0F
b0 E
b10 D
b0 C
b0 B
b0 A
b0 @
b0 ?
b0 >
b0 =
bx <
b1 ;
b0 :
b0 9
b0 8
b0 7
x6
05
b0 4
03
bx 2
01
b0 0
b0 ,
0+
b0 *
0)
0(
b0 '
b1 &
b0 %
0$
b0 #
b0 "
0!
$end
#5000
0+
06
11
#10000
01
#15000
11
#20000
01
13
#25000
b100 "
b100 ?
b0 S
b0 R
b1000 U
bx G"
bx H"
bx F"
bx @"
bx A"
bx ?"
bx 9"
bx :"
bx 8"
bx 2"
bx 3"
bx 1"
bx +"
bx ,"
bx *"
bx $"
bx %"
bx #"
bx {
bx |
bx z
bx t
bx u
bx s
b100 ,
b100 7
b100 J
b100 O
b100 Q
b10 &
b10 ;
b10 I
b10 N
b10 k
b10 M"
bx C"
bx B"
bx <"
bx ;"
bx 5"
bx 4"
bx ."
bx -"
bx '"
bx &"
bx ~
bx }
bx w
bx v
bx p
bx o
bx B
bx j
bx l
bx O"
bx A
bx Z
bx W"
11
#30000
b1 c
0+
01
15
b10 0
b10 8
b10 V
b100000000 Y"
#35000
1)
1+
b0 "
b0 ?
b1 d
b0 ,
b0 7
b0 J
b0 O
b0 Q
11
#40000
1)
01
05
#45000
b0 R"
b0 T"
b0 S"
b10 g
b10 c
1)
16
b0 2
b0 <
b0 K"
b0 P"
11
#50000
01
#55000
b1 g
0)
b0 G"
b0 H"
b0 F"
b0 @"
b0 A"
b0 ?"
b0 9"
b0 :"
b0 8"
b0 2"
b0 3"
b0 1"
b0 +"
b0 ,"
b0 *"
b0 $"
b0 %"
b0 #"
b0 {
b0 |
b0 z
b0 t
b0 u
b0 s
b0 A
b0 Z
b0 W"
b10 h
b10 d
b0 C"
b0 B"
b0 <"
b0 ;"
b0 5"
b0 4"
b0 ."
b0 -"
b0 '"
b0 &"
b0 ~
b0 }
b0 w
b0 v
b0 p
b0 o
b0 B
b0 j
b0 l
b0 O"
11
#60000
01
#65000
b0 g
b1 h
06
11
#70000
01
#75000
b11 c
b0 h
11
#80000
01
#85000
b100 g
b100 c
b11 d
11
#90000
01
#95000
b11 g
b11111111 *
b11111111 9
b11111111 H
b11111111 ^
b11111111 i
b100 h
b100 d
11
#100000
01
#105000
b10 g
b11111111 *
b11111111 9
b11111111 H
b11111111 ^
b11111111 i
b11 h
11
#110000
01
#115000
b1 g
b11111111 *
b11111111 9
b11111111 H
b11111111 ^
b11111111 i
b10 h
11
#120000
01
#125000
b0 g
b11111111 *
b11111111 9
b11111111 H
b11111111 ^
b11111111 i
b1 h
11
#130000
01
#135000
b10 g
b101 c
b11111111 *
b11111111 9
b11111111 H
b11111111 ^
b11111111 i
b0 h
11
#140000
01
#145000
b1 g
b0 *
b0 9
b0 H
b0 ^
b0 i
b10 h
b101 d
11
#150000
01
#155000
b0 g
b1 h
11
#160000
01
#165000
b110 c
b0 h
11
#170000
01
#175000
b1 c
b1 e
1$
1!
b110 d
11
#180000
01
#185000
b1 #
b1 >
b1 %
b1 C
b1 b
1)
0$
0!
b1 f
b1 d
11
#190000
01
#195000
b1010 R"
b1010 T"
b10 g
b10 c
b11111111 @
b11111111 Y
b11111111 X"
16
b1010 2
b1010 <
b1010 K"
b1010 P"
1)
b1 #
b1 >
b1 %
b1 C
b1 b
11
15
b0 0
b0 8
b0 V
b1000000 4
b1000000 =
b1000000 X
b1000000 Q"
#200000
01
#205000
b100100 G"
b1100100 H"
b1100100 F"
b100100 @"
b1100100 A"
b1100100 ?"
b100100 9"
b1100100 :"
b1100100 8"
b100100 2"
b1100100 3"
b1100100 1"
b100100 +"
b1100100 ,"
b1100100 *"
b100100 $"
b1100100 %"
b1100100 #"
b100100 {
b1100100 |
b1100100 z
b100100 t
b1100100 u
b1100100 s
b1010 C"
b1010 B"
b1010 <"
b1010 ;"
b1010 5"
b1010 4"
b1010 ."
b1010 -"
b1010 '"
b1010 &"
b1010 ~
b1010 }
b1010 w
b1010 v
b1010 p
b1010 o
b1010 B
b1010 j
b1010 l
b1010 O"
b10 h
b10 d
b1010 A
b1010 Z
b1010 W"
0)
b0 #
b0 >
b0 %
b0 C
b0 b
b1 g
b10 c
11
05
#210000
01
#215000
b0 g
b1 h
06
11
#220000
01
#225000
b11 c
b0 h
11
#230000
01
#235000
b100 g
b100 c
b0 `
b11 d
11
#240000
01
#245000
b11 g
b11111111 '
b11111111 :
b11111111 E
b11111111 _
b0 D
b0 W
b0 I"
b0 a
b100 h
b100 d
11
#250000
01
#255000
b10 g
b11111111 '
b11111111 :
b11111111 E
b11111111 _
b1100 S
b1100 R
b1000 U
b11 h
b0 &
b0 ;
b0 I
b0 N
b0 k
b0 M"
11
#260000
01
#265000
b1100 "
b1100 ?
b1 g
b11111111 '
b11111111 :
b11111111 E
b11111111 _
b1100 ,
b1100 7
b1100 J
b1100 O
b1100 Q
b10 h
11
#270000
01
#275000
b0 g
b11111111 '
b11111111 :
b11111111 E
b11111111 _
b1 h
11
#280000
01
#285000
b10 g
b101 c
b11111111 '
b11111111 :
b11111111 E
b11111111 _
b0 h
11
#290000
01
#295000
b1 g
b0 '
b0 :
b0 E
b0 _
b10 h
b101 d
11
#300000
01
#305000
b0 g
b1 h
11
#310000
01
#315000
b110 c
b0 h
11
#320000
01
#325000
b1 c
b10 e
1$
1!
b110 d
11
#330000
01
#335000
b10 #
b10 >
b10 %
b10 C
b10 b
1)
0$
0!
b10 f
b1 d
11
#340000
01
#345000
b10100 R"
b10100 T"
b10 g
b10 c
16
b10100 2
b10100 <
b10100 K"
b10100 P"
1)
b10 #
b10 >
b10 %
b10 C
b10 b
11
15
b1 0
b1 8
b1 V
b10000 4
b10000 =
b10000 X
b10000 Q"
#350000
01
#355000
b10001 G"
b110010000 H"
b110010000 F"
b10001 @"
b110010000 A"
b110010000 ?"
b10001 9"
b110010000 :"
b110010000 8"
b10001 2"
b110010000 3"
b110010000 1"
b10001 +"
b110010000 ,"
b110010000 *"
b10001 $"
b110010000 %"
b110010000 #"
b10001 {
b110010000 |
b110010000 z
b10001 t
b110010000 u
b110010000 s
b0 @
b0 Y
b0 X"
b10100 A
b10100 Z
b10100 W"
b10 h
b10 d
b10100 C"
b10100 B"
b10100 <"
b10100 ;"
b10100 5"
b10100 4"
b10100 ."
b10100 -"
b10100 '"
b10100 &"
b10100 ~
b10100 }
b10100 w
b10100 v
b10100 p
b10100 o
b10100 B
b10100 j
b10100 l
b10100 O"
0)
b0 #
b0 >
b0 %
b0 C
b0 b
b1 g
b10 c
11
05
#360000
01
#365000
b0 g
b1 h
06
11
#370000
01
#375000
b11 c
b0 h
11
#380000
01
#385000
b100 g
b100 c
b1 `
b11 d
11
#390000
01
#395000
b11 g
b11111111 *
b11111111 9
b11111111 H
b11111111 ^
b11111111 i
b1 D
b1 W
b1 I"
b1 a
b100 h
b100 d
11
#400000
01
#405000
b10001100 S
b100 R
b10001000 T
b1000 U
b10001 E"
b10001 >"
b10001 7"
b10001 0"
b10001 )"
b10001 ""
b10001 y
b10001 r
b1 &
b1 ;
b1 I
b1 N
b1 k
b1 M"
b11 h
b11111111 *
b11111111 9
b11111111 H
b11111111 ^
b11111111 i
b10 g
11
b10 0
b10 8
b10 V
#410000
01
#415000
b1 g
b11111111 *
b11111111 9
b11111111 H
b11111111 ^
b11111111 i
b110010000100 S
b1000 U
b110010000000 T
b10001100 "
b10001100 ?
b10 h
b110010000 r
b110010000 y
b110010000 ""
b110010000 )"
b110010000 0"
b110010000 7"
b110010000 >"
b110010000 E"
b10001100 ,
b10001100 7
b10001100 J
b10001100 O
b10001100 Q
11
#420000
01
#425000
b110010000100 "
b110010000100 ?
b0 g
b11111111 *
b11111111 9
b11111111 H
b11111111 ^
b11111111 i
b110010000100 ,
b110010000100 7
b110010000100 J
b110010000100 O
b110010000100 Q
b1 h
11
#430000
01
#435000
b10 g
b101 c
b11111111 *
b11111111 9
b11111111 H
b11111111 ^
b11111111 i
b0 h
11
#440000
01
#445000
b1 g
b0 *
b0 9
b0 H
b0 ^
b0 i
b10 h
b101 d
11
#450000
01
#455000
b0 g
b1 h
11
#460000
01
#465000
b110 c
b0 h
11
#470000
01
#475000
b1 c
b11 e
1$
1!
b110 d
11
#480000
01
#485000
b11 #
b11 >
b11 %
b11 C
b11 b
1)
0$
0!
b11 f
b1 d
11
#490000
01
#495000
b10000000 R"
b1 T"
b1111111 S"
b10 g
b10 c
1N"
16
b111111111111111 2
b111111111111111 <
b111111111111111 K"
b111111111111111 P"
1)
b11 #
b11 >
b11 %
b11 C
b11 b
11
15
b0 4
b0 =
b0 X
b0 Q"
b100000000 Z"
#500000
01
#505000
b110010000000 S
b0 R
b1000 U
b110010000000 T
b110100 G"
b11111100000010 H"
b111111111111110000000000000001 F"
b110100 @"
b11111100000010 A"
b111111111111110000000000000001 ?"
b110100 9"
b11111100000010 :"
b111111111111110000000000000001 8"
b110100 2"
b11111100000010 3"
b111111111111110000000000000001 1"
b110100 +"
b11111100000010 ,"
b111111111111110000000000000001 *"
b110100 $"
b11111100000010 %"
b111111111111110000000000000001 #"
b110100 {
b11111100000010 |
b111111111111110000000000000001 z
b110100 t
b11111100000010 u
b111111111111110000000000000001 s
b10 &
b10 ;
b10 I
b10 N
b10 k
b10 M"
1G
b111111111111111 C"
b111111111111111 B"
b111111111111111 <"
b111111111111111 ;"
b111111111111111 5"
b111111111111111 4"
b111111111111111 ."
b111111111111111 -"
b111111111111111 '"
b111111111111111 &"
b111111111111111 ~
b111111111111111 }
b111111111111111 w
b111111111111111 v
b111111111111111 p
b111111111111111 o
b111111111111111 B
b111111111111111 j
b111111111111111 l
b111111111111111 O"
b10 h
b10 d
b10000000 A
b10000000 Z
b10000000 W"
0)
b0 #
b0 >
b0 %
b0 C
b0 b
b1 g
b10 c
11
05
#510000
01
#515000
b110010000000 "
b110010000000 ?
b0 g
b1 h
b110010000000 ,
b110010000000 7
b110010000000 J
b110010000000 O
b110010000000 Q
06
11
#520000
01
#525000
b11 c
b0 h
11
#530000
01
#535000
b100 g
b100 c
b10 `
b11 d
11
#540000
01
#545000
b11 g
b11111111 *
b11111111 9
b11111111 H
b11111111 ^
b11111111 i
b10 D
b10 W
b10 I"
b10 a
b100 h
b100 d
11
#550000
01
#555000
b10 g
b11111111 *
b11111111 9
b11111111 H
b11111111 ^
b11111111 i
b111111111111110000000000000001000 S
b1000 U
b111111111111110000000000000001000 T
b11 h
b111111111111110000000000000001 r
b111111111111110000000000000001 y
b111111111111110000000000000001 ""
b111111111111110000000000000001 )"
b111111111111110000000000000001 0"
b111111111111110000000000000001 7"
b111111111111110000000000000001 >"
b111111111111110000000000000001 E"
11
#560000
01
#565000
b1111111111111111 "
b1111111111111111 ?
b1 g
b11111111 *
b11111111 9
b11111111 H
b11111111 ^
b11111111 i
1(
1F
b1111111111111111111111111111111 ,
b1111111111111111111111111111111 7
b1111111111111111111111111111111 J
b1111111111111111111111111111111 O
b1111111111111111111111111111111 Q
b10 h
11
#570000
01
#575000
b0 g
b11111111 *
b11111111 9
b11111111 H
b11111111 ^
b11111111 i
b1 h
11
#580000
01
#585000
b10 g
b101 c
b11111111 *
b11111111 9
b11111111 H
b11111111 ^
b11111111 i
b0 h
11
#590000
01
#595000
b1 g
b0 *
b0 9
b0 H
b0 ^
b0 i
b10 h
b101 d
11
#600000
01
#605000
b0 g
b1 h
11
#610000
01
#615000
b110 c
b0 h
11
#620000
01
#625000
b1 c
b100 e
1$
1!
b110 d
11
#630000
01
#635000
b100 #
b100 >
b100 %
b100 C
b100 b
1)
0$
0!
b100 f
b1 d
11
#640000
01
#645000
b111110 T"
b1110000 R"
b110010 S"
b10 g
b10 c
1N"
b11111111 @
b11111111 Y
b11111111 X"
16
b11001011000010 2
b11001011000010 <
b11001011000010 K"
b11001011000010 P"
1)
b100 #
b100 >
b100 %
b100 C
b100 b
11
15
b100000000 \"
b0 0
b0 8
b0 V
b10010010 4
b10010010 =
b10010010 X
b10010010 Q"
#650000
01
#655000
b100001 G"
b1100011001000 H"
b1010000100000101101100000100 F"
b100001 @"
b1100011001000 A"
b1010000100000101101100000100 ?"
b100001 9"
b1100011001000 :"
b1010000100000101101100000100 8"
b100001 2"
b1100011001000 3"
b1010000100000101101100000100 1"
b100001 +"
b1100011001000 ,"
b1010000100000101101100000100 *"
b100001 $"
b1100011001000 %"
b1010000100000101101100000100 #"
b100001 {
b1100011001000 |
b1010000100000101101100000100 z
b100001 t
b1100011001000 u
b1010000100000101101100000100 s
b1110000 A
b1110000 Z
b1110000 W"
b10 h
b10 d
b11001011000010 C"
b11001011000010 B"
b11001011000010 <"
b11001011000010 ;"
b11001011000010 5"
b11001011000010 4"
b11001011000010 ."
b11001011000010 -"
b11001011000010 '"
b11001011000010 &"
b11001011000010 ~
b11001011000010 }
b11001011000010 w
b11001011000010 v
b11001011000010 p
b11001011000010 o
b11001011000010 B
b11001011000010 j
b11001011000010 l
b11001011000010 O"
0)
b0 #
b0 >
b0 %
b0 C
b0 b
b1 g
b10 c
11
05
#660000
01
#665000
b0 g
b1 h
06
11
#670000
01
#675000
b11 c
b0 h
11
#680000
01
#685000
b100 g
b100 c
b0 `
b11 d
11
#690000
01
#695000
b11 g
b11111111 '
b11111111 :
b11111111 E
b11111111 _
b0 D
b0 W
b0 I"
b0 a
b100 h
b100 d
11
#700000
01
#705000
b10 g
b11111111 '
b11111111 :
b11111111 E
b11111111 _
b11 h
11
#710000
01
#715000
b1 g
b11111111 '
b11111111 :
b11111111 E
b11111111 _
b10 h
11
#720000
01
#725000
b0 g
b11111111 '
b11111111 :
b11111111 E
b11111111 _
b1 h
11
#730000
01
#735000
b10 g
b101 c
b11111111 '
b11111111 :
b11111111 E
b11111111 _
b0 h
11
#740000
01
#745000
b1 g
b0 '
b0 :
b0 E
b0 _
b10 h
b101 d
11
#750000
01
#755000
b0 g
b1 h
11
#760000
01
#765000
b110 c
b0 h
11
#770000
01
#775000
b1 c
b101 e
1$
1!
b110 d
11
#780000
01
#785000
b101 #
b101 >
b101 %
b101 C
b101 b
1)
0$
0!
b101 f
b1 d
11
#790000
01
#795000
b1001101 T"
b11000111 R"
b1111010 S"
b10 g
b10 c
1N"
16
b1000011010110011 2
b1000011010110011 <
b1000011010110011 K"
b1000011010110011 P"
1)
b101 #
b101 >
b101 %
b101 C
b101 b
11
15
b100000000 \"
b10 0
b10 8
b10 V
b11001101 4
b11001101 =
b11001101 X
b11001101 Q"
b1 ["
#800000
01
#805000
b10000110 G"
b101000101001101 H"
b111001011110011110000100101001 F"
b10000110 @"
b101000101001101 A"
b111001011110011110000100101001 ?"
b10000110 9"
b101000101001101 :"
b111001011110011110000100101001 8"
b10000110 2"
b101000101001101 3"
b111001011110011110000100101001 1"
b10000110 +"
b101000101001101 ,"
b111001011110011110000100101001 *"
b10000110 $"
b101000101001101 %"
b111001011110011110000100101001 #"
b10000110 {
b101000101001101 |
b111001011110011110000100101001 z
b10000110 t
b101000101001101 u
b111001011110011110000100101001 s
b1000011010110011 C"
b1000011010110011 B"
b1000011010110011 <"
b1000011010110011 ;"
b1000011010110011 5"
b1000011010110011 4"
b1000011010110011 ."
b1000011010110011 -"
b1000011010110011 '"
b1000011010110011 &"
b1000011010110011 ~
b1000011010110011 }
b1000011010110011 w
b1000011010110011 v
b1000011010110011 p
b1000011010110011 o
b1000011010110011 B
b1000011010110011 j
b1000011010110011 l
b1000011010110011 O"
b10 h
b10 d
b11000111 A
b11000111 Z
b11000111 W"
0)
b0 #
b0 >
b0 %
b0 C
b0 b
b1 g
b10 c
11
05
#810000
01
#815000
b0 g
b1 h
06
11
#820000
01
#825000
b11 c
b0 h
11
#830000
01
#835000
b100 g
b100 c
b11 d
11
#840000
01
#845000
b11 g
b11111111 '
b11111111 :
b11111111 E
b11111111 _
b100 h
b100 d
11
#850000
01
#855000
b10 g
b11111111 '
b11111111 :
b11111111 E
b11111111 _
b11 h
11
#860000
01
#865000
b1 g
b11111111 '
b11111111 :
b11111111 E
b11111111 _
b10 h
11
#870000
01
#875000
b0 g
b11111111 '
b11111111 :
b11111111 E
b11111111 _
b1 h
11
#880000
01
#885000
b10 g
b101 c
b11111111 '
b11111111 :
b11111111 E
b11111111 _
b0 h
11
#890000
01
#895000
b1 g
b0 '
b0 :
b0 E
b0 _
b10 h
b101 d
11
#900000
01
#905000
b0 g
b1 h
11
#910000
01
#915000
b110 c
b0 h
11
#920000
01
#925000
b1 c
b110 e
1$
1!
b110 d
11
#930000
01
#935000
b110 #
b110 >
b110 %
b110 C
b110 b
1)
0$
0!
b110 f
b1 d
11
#940000
01
#945000
b1111110 R"
b1101011 S"
b10011 T"
b10 g
b10 c
1N"
b0 @
b0 Y
b0 X"
16
b1001010100010011 2
b1001010100010011 <
b1001010100010011 K"
b1001010100010011 P"
1)
b110 #
b110 >
b110 %
b110 C
b110 b
11
15
b100000000 \"
b1 0
b1 8
b1 V
b10110010 4
b10110010 =
b10110010 X
b10110010 Q"
b10 ["
#950000
01
#955000
b1010100 G"
b10111000100010 H"
b101100101010010001111101101001 F"
b1010100 @"
b10111000100010 A"
b101100101010010001111101101001 ?"
b1010100 9"
b10111000100010 :"
b101100101010010001111101101001 8"
b1010100 2"
b10111000100010 3"
b101100101010010001111101101001 1"
b1010100 +"
b10111000100010 ,"
b101100101010010001111101101001 *"
b1010100 $"
b10111000100010 %"
b101100101010010001111101101001 #"
b1010100 {
b10111000100010 |
b101100101010010001111101101001 z
b1010100 t
b10111000100010 u
b101100101010010001111101101001 s
b11111111 @
b11111111 Y
b11111111 X"
b1111110 A
b1111110 Z
b1111110 W"
b10 h
b10 d
b1001010100010011 C"
b1001010100010011 B"
b1001010100010011 <"
b1001010100010011 ;"
b1001010100010011 5"
b1001010100010011 4"
b1001010100010011 ."
b1001010100010011 -"
b1001010100010011 '"
b1001010100010011 &"
b1001010100010011 ~
b1001010100010011 }
b1001010100010011 w
b1001010100010011 v
b1001010100010011 p
b1001010100010011 o
b1001010100010011 B
b1001010100010011 j
b1001010100010011 l
b1001010100010011 O"
0)
b0 #
b0 >
b0 %
b0 C
b0 b
b1 g
b10 c
11
05
#960000
01
#965000
b0 g
b1 h
06
11
#970000
01
#975000
b11 c
b0 h
11
#980000
01
#985000
b100 g
b100 c
b11 d
11
#990000
01
#995000
b11 g
b11111111 '
b11111111 :
b11111111 E
b11111111 _
b100 h
b100 d
11
#1000000
01
#1005000
b10 g
b11111111 '
b11111111 :
b11111111 E
b11111111 _
b11 h
11
#1010000
01
#1015000
b1 g
b11111111 '
b11111111 :
b11111111 E
b11111111 _
b10 h
11
#1020000
01
#1025000
b0 g
b11111111 '
b11111111 :
b11111111 E
b11111111 _
b1 h
11
#1030000
01
#1035000
b10 g
b101 c
b11111111 '
b11111111 :
b11111111 E
b11111111 _
b0 h
11
#1040000
01
#1045000
b1 g
b0 '
b0 :
b0 E
b0 _
b10 h
b101 d
11
#1050000
01
#1055000
b0 g
b1 h
11
#1060000
01
#1065000
b110 c
b0 h
11
#1070000
01
#1075000
b1 c
b111 e
1$
1!
b110 d
11
#1080000
01
#1085000
b111 #
b111 >
b111 %
b111 C
b111 b
1)
0$
0!
b111 f
b1 d
11
#1090000
01
#1095000
b1110001 R"
b101110 S"
b1000011 T"
b10 g
b10 c
1N"
b0 @
b0 Y
b0 X"
16
b1101001001000011 2
b1101001001000011 <
b1101001001000011 K"
b1101001001000011 P"
1)
b111 #
b111 >
b111 %
b111 C
b111 b
11
15
b100000000 \"
b10 0
b10 8
b10 V
b100 4
b100 =
b100 X
b100 Q"
b11 ["
#1100000
01
