tb/wave.vcd
$date
	Wed Jul 22 12:38:02 2026
$end
$version
	Icarus Verilog
$end
$timescale
	1ps
$end
$scope module tb_precision_sparse_attn $end
$var wire 1 ! wb_valid_o $end
$var wire 16 " wb_data_o [15:0] $end
$var wire 16 # wb_addr_o [15:0] $end
$var wire 1 $ tile_done_o $end
$var wire 16 % qkv_addr_o [15:0] $end
$var wire 2 & precision_sel_o [1:0] $end
$var wire 8 ' power_gate_o [7:0] $end
$var wire 1 ( overflow_flag_o $end
$var wire 1 ) mem_ren_o $end
$var wire 8 * mac_en_o [7:0] $end
$var wire 1 + busy_o $end
$var wire 32 , acc_out_o [31:0] $end
$var parameter 32 - ADDR_WIDTH $end
$var parameter 32 . DATA_WIDTH $end
$var parameter 32 / MAC_LANES $end
$var reg 2 0 accuracy_target_reg [1:0] $end
$var reg 1 1 clk $end
$var reg 16 2 qkv_data_i [15:0] $end
$var reg 1 3 rst_n $end
$var reg 8 4 sparsity_thresh_reg [7:0] $end
$var reg 1 5 start $end
$var reg 1 6 tile_valid_i $end
$scope module dut $end
$var wire 32 7 acc_out_o [31:0] $end
$var wire 2 8 accuracy_target_reg [1:0] $end
$var wire 1 1 clk $end
$var wire 8 9 mac_en_o [7:0] $end
$var wire 1 ( overflow_flag_o $end
$var wire 8 : power_gate_o [7:0] $end
$var wire 2 ; precision_sel_o [1:0] $end
$var wire 16 < qkv_data_i [15:0] $end
$var wire 1 3 rst_n $end
$var wire 8 = sparsity_thresh_reg [7:0] $end
$var wire 1 5 start $end
$var wire 1 6 tile_valid_i $end
$var wire 16 > wb_addr_o [15:0] $end
$var wire 1 ! wb_valid_o $end
$var wire 16 ? wb_data_o [15:0] $end
$var wire 1 $ tile_done_o $end
$var wire 8 @ skip_mask_w [7:0] $end
$var wire 8 A score_est_w [7:0] $end
$var wire 16 B qkv_addr_o [15:0] $end
$var wire 2 C precision_sel_w [1:0] $end
$var wire 8 D power_gate_w [7:0] $end
$var wire 1 E overflow_flag_w $end
$var wire 1 ) mem_ren_o $end
$var wire 8 F mac_en_w [7:0] $end
$var wire 1 + busy_o $end
$var wire 32 G acc_out_w [31:0] $end
$var parameter 32 H ADDR_WIDTH $end
$var parameter 32 I DATA_WIDTH $end
$var parameter 32 J MAC_LANES $end
$scope module i_accumulator $end
$var wire 1 1 clk $end
$var wire 1 3 rst_n $end
$var wire 2 K precision_sel_i [1:0] $end
$var wire 1 E overflow_flag_o $end
$var wire 32 L acc_out_o [31:0] $end
$var parameter 32 M MAC_LANES $end
$var reg 32 N acc_q [31:0] $end
$var reg 36 O err_comp [35:0] $end
$var reg 36 P final_acc [35:0] $end
$var reg 1 E ovf_q $end
$var reg 36 Q sum [35:0] $end
$scope begin $ivl_for_loop0 $end
$var integer 32 R i [31:0] $end
$upscope $end
$upscope $end
$scope module i_fsm $end
$var wire 2 S accuracy_target_reg [1:0] $end
$var wire 1 1 clk $end
$var wire 1 E overflow_flag_i $end
$var wire 1 3 rst_n $end
$var wire 8 T sparsity_thresh_reg [7:0] $end
$var wire 1 5 start $end
$var wire 1 6 tile_valid_i $end
$var wire 8 U skip_mask_i [7:0] $end
$var wire 8 V score_est_i [7:0] $end
$var wire 2 W precision_sel_o [1:0] $end
$var wire 1 X last_tile $end
$var parameter 32 Y ADDR_WIDTH $end
$var parameter 32 Z MAC_LANES $end
$var reg 1 + busy_o $end
$var reg 8 [ mac_en_o [7:0] $end
$var reg 1 ) mem_ren_o $end
$var reg 8 \ power_gate_o [7:0] $end
$var reg 2 ] precision_sel_d [1:0] $end
$var reg 2 ^ precision_sel_q [1:0] $end
$var reg 16 _ qkv_addr_o [15:0] $end
$var reg 3 ` state_d [2:0] $end
$var reg 3 a state_q [2:0] $end
$var reg 4 b tile_count_d [3:0] $end
$var reg 4 c tile_count_q [3:0] $end
$var reg 1 $ tile_done_o $end
$var reg 4 d timer_d [3:0] $end
$var reg 4 e timer_q [3:0] $end
$var reg 1 ! wb_valid_o $end
$upscope $end
$scope module i_mac_array $end
$var wire 1 1 clk $end
$var wire 16 f k_data_i [15:0] $end
$var wire 8 g mac_en_i [7:0] $end
$var wire 2 h precision_sel_i [1:0] $end
$var wire 16 i q_data_i [15:0] $end
$var wire 1 3 rst_n $end
$var parameter 32 j DATA_WIDTH $end
$var parameter 32 k MAC_LANES $end
$scope begin mac_lane_gen[0] $end
$var wire 16 l op_a_16 [15:0] $end
$var wire 16 m op_b_16 [15:0] $end
$var parameter 2 n i $end
$var reg 32 o mac_out_q [31:0] $end
$var reg 32 p result_16 [31:0] $end
$var reg 32 q result_4 [31:0] $end
$var reg 32 r result_8 [31:0] $end
$upscope $end
$scope begin mac_lane_gen[1] $end
$var wire 16 s op_a_16 [15:0] $end
$var wire 16 t op_b_16 [15:0] $end
$var parameter 2 u i $end
$var reg 32 v mac_out_q [31:0] $end
$var reg 32 w result_16 [31:0] $end
$var reg 32 x result_4 [31:0] $end
$var reg 32 y result_8 [31:0] $end
$upscope $end
$scope begin mac_lane_gen[2] $end
$var wire 16 z op_a_16 [15:0] $end
$var wire 16 { op_b_16 [15:0] $end
$var parameter 3 | i $end
$var reg 32 } mac_out_q [31:0] $end
$var reg 32 ~ result_16 [31:0] $end
$var reg 32 !" result_4 [31:0] $end
$var reg 32 "" result_8 [31:0] $end
$upscope $end
$scope begin mac_lane_gen[3] $end
$var wire 16 #" op_a_16 [15:0] $end
$var wire 16 $" op_b_16 [15:0] $end
$var parameter 3 %" i $end
$var reg 32 &" mac_out_q [31:0] $end
$var reg 32 '" result_16 [31:0] $end
$var reg 32 (" result_4 [31:0] $end
$var reg 32 )" result_8 [31:0] $end
$upscope $end
$scope begin mac_lane_gen[4] $end
$var wire 16 *" op_a_16 [15:0] $end
$var wire 16 +" op_b_16 [15:0] $end
$var parameter 4 ," i $end
$var reg 32 -" mac_out_q [31:0] $end
$var reg 32 ." result_16 [31:0] $end
$var reg 32 /" result_4 [31:0] $end
$var reg 32 0" result_8 [31:0] $end
$upscope $end
$scope begin mac_lane_gen[5] $end
$var wire 16 1" op_a_16 [15:0] $end
$var wire 16 2" op_b_16 [15:0] $end
$var parameter 4 3" i $end
$var reg 32 4" mac_out_q [31:0] $end
$var reg 32 5" result_16 [31:0] $end
$var reg 32 6" result_4 [31:0] $end
$var reg 32 7" result_8 [31:0] $end
$upscope $end
$scope begin mac_lane_gen[6] $end
$var wire 16 8" op_a_16 [15:0] $end
$var wire 16 9" op_b_16 [15:0] $end
$var parameter 4 :" i $end
$var reg 32 ;" mac_out_q [31:0] $end
$var reg 32 <" result_16 [31:0] $end
$var reg 32 =" result_4 [31:0] $end
$var reg 32 >" result_8 [31:0] $end
$upscope $end
$scope begin mac_lane_gen[7] $end
$var wire 16 ?" op_a_16 [15:0] $end
$var wire 16 @" op_b_16 [15:0] $end
$var parameter 4 A" i $end
$var reg 32 B" mac_out_q [31:0] $end
$var reg 32 C" result_16 [31:0] $end
$var reg 32 D" result_4 [31:0] $end
$var reg 32 E" result_8 [31:0] $end
$upscope $end
$upscope $end
$scope module i_sparsity_predictor $end
$var wire 1 1 clk $end
$var wire 16 F" qkv_data_i [15:0] $end
$var wire 1 3 rst_n $end
$var wire 8 G" sparsity_thresh_reg [7:0] $end
$var wire 9 H" sum_abs [8:0] $end
$var wire 8 I" abs_upper [7:0] $end
$var wire 8 J" abs_lower [7:0] $end
$var parameter 32 K" DATA_WIDTH $end
$var parameter 32 L" MAC_LANES $end
$var reg 8 M" score_est_o [7:0] $end
$var reg 8 N" skip_mask_o [7:0] $end
$upscope $end
$upscope $end
$scope begin $ivl_for_loop1 $end
$var integer 32 O" i [31:0] $end
$upscope $end
$scope begin $ivl_for_loop2 $end
$var integer 32 P" i [31:0] $end
$upscope $end
$scope begin $ivl_for_loop3 $end
$var integer 32 Q" i [31:0] $end
$scope begin $ivl_for_loop4 $end
$var integer 32 R" j [31:0] $end
$upscope $end
$upscope $end
$scope task reset_dut $end
$upscope $end
$upscope $end
$enddefinitions $end
$comment Show the parameter values. $end
$dumpall
b1000 L"
b10000 K"
b111 A"
b110 :"
b101 3"
b100 ,"
b11 %"
b10 |
b1 u
b0 n
b1000 k
b10000 j
b1000 Z
b10000 Y
b1000 M
b1000 J
b10000 I
b10000 H
b1000 /
b10000 .
b10000 -
$end
#0
$dumpvars
b0 R"
b0 Q"
b0 P"
b0 O"
b0 N"
b0 M"
bx J"
bx I"
bx H"
b0 G"
bx F"
bx E"
bx D"
bx C"
b0 B"
bx @"
bx ?"
bx >"
bx ="
bx <"
b0 ;"
bx 9"
bx 8"
bx 7"
bx 6"
bx 5"
b0 4"
bx 2"
bx 1"
bx 0"
bx /"
bx ."
b0 -"
bx +"
bx *"
bx )"
bx ("
bx '"
b0 &"
bx $"
bx #"
bx ""
bx !"
bx ~
b0 }
bx {
bx z
bx y
bx x
bx w
b0 v
bx t
bx s
bx r
bx q
bx p
b0 o
bx m
bx l
bx i
b10 h
b0 g
bx f
b0 e
b0 d
b0 c
b0 b
b0 a
b0 `
b0 _
b10 ^
b10 ]
b0 \
b0 [
0X
b10 W
b0 V
b0 U
b0 T
b0 S
b1000 R
b0 Q
b0 P
b0 O
b0 N
b0 L
b10 K
b0 G
b0 F
0E
b0 D
b10 C
b0 B
b0 A
b0 @
b0 ?
b0 >
b0 =
bx <
b10 ;
b0 :
b0 9
b0 8
b0 7
x6
05
b0 4
03
bx 2
01
b0 0
b0 ,
0+
b0 *
0)
0(
b0 '
b10 &
b0 %
0$
b0 #
b0 "
0!
$end
#5000
0+
06
11
#10000
01
#15000
11
#20000
01
13
#25000
bx A
bx V
bx M"
11
#30000
b1 `
0+
01
15
b10 0
b10 8
b10 S
b100000000 O"
#35000
1)
1+
b1 a
11
#40000
1)
01
05
#45000
b0 H"
b0 q
b0 r
b0 x
b0 y
b0 !"
b0 ""
b0 ("
b0 )"
b0 /"
b0 0"
b0 6"
b0 7"
b0 ="
b0 >"
b0 D"
b0 E"
b0 J"
b0 I"
b10 d
b10 `
1)
b0 p
b0 w
b0 ~
b0 '"
b0 ."
b0 5"
b0 <"
b0 C"
16
b0 l
b0 m
b0 s
b0 t
b0 z
b0 {
b0 #"
b0 $"
b0 *"
b0 +"
b0 1"
b0 2"
b0 8"
b0 9"
b0 ?"
b0 @"
b0 2
b0 <
b0 f
b0 i
b0 F"
11
#50000
01
#55000
b1 d
0)
b0 A
b0 V
b0 M"
b10 e
b10 a
11
#60000
01
#65000
b0 d
b1 e
06
11
#70000
01
#75000
b11 `
b0 e
11
#80000
01
#85000
b100 d
b100 `
b11 a
11
#90000
01
#95000
b11 d
b11111111 *
b11111111 9
b11111111 F
b11111111 [
b11111111 g
b100 e
b100 a
11
#100000
01
#105000
b10 d
b11111111 *
b11111111 9
b11111111 F
b11111111 [
b11111111 g
b11 e
11
#110000
01
#115000
b1 d
b11111111 *
b11111111 9
b11111111 F
b11111111 [
b11111111 g
b10 e
11
#120000
01
#125000
b0 d
b11111111 *
b11111111 9
b11111111 F
b11111111 [
b11111111 g
b1 e
11
#130000
01
#135000
b10 d
b101 `
b11111111 *
b11111111 9
b11111111 F
b11111111 [
b11111111 g
b0 e
11
#140000
01
#145000
b1 d
b0 *
b0 9
b0 F
b0 [
b0 g
b10 e
b101 a
11
#150000
01
#155000
b0 d
b1 e
11
#160000
01
#165000
b110 `
b0 e
11
#170000
01
#175000
b1 `
b1 b
1$
1!
b110 a
11
#180000
01
#185000
b1 #
b1 >
b1 %
b1 B
b1 _
1)
0$
0!
b1 c
b1 a
11
#190000
01
#195000
b1010 H"
b100100 q
b1100100 r
b100100 x
b1100100 y
b100100 !"
b1100100 ""
b100100 ("
b1100100 )"
b100100 /"
b1100100 0"
b100100 6"
b1100100 7"
b100100 ="
b1100100 >"
b100100 D"
b1100100 E"
b1010 J"
b10 d
b10 `
b1100100 p
b1100100 w
b1100100 ~
b1100100 '"
b1100100 ."
b1100100 5"
b1100100 <"
b1100100 C"
b11111111 @
b11111111 U
b11111111 N"
16
b1010 l
b1010 m
b1010 s
b1010 t
b1010 z
b1010 {
b1010 #"
b1010 $"
b1010 *"
b1010 +"
b1010 1"
b1010 2"
b1010 8"
b1010 9"
b1010 ?"
b1010 @"
b1010 2
b1010 <
b1010 f
b1010 i
b1010 F"
1)
b1 #
b1 >
b1 %
b1 B
b1 _
11
15
b0 0
b0 8
b0 S
b1000000 4
b1000000 =
b1000000 T
b1000000 G"
#200000
01
#205000
b10 e
b10 a
b1010 A
b1010 V
b1010 M"
0)
b0 #
b0 >
b0 %
b0 B
b0 _
b1 d
b10 `
11
05
#210000
01
#215000
b0 d
b1 e
06
11
#220000
01
#225000
b11 `
b0 e
11
#230000
01
#235000
b100 d
b100 `
b0 ]
b11 a
11
#240000
01
#245000
b1100 P
b1100 O
b1000 R
b11 d
b11111111 '
b11111111 :
b11111111 D
b11111111 \
b0 &
b0 ;
b0 C
b0 K
b0 W
b0 ^
b0 h
b100 e
b100 a
11
#250000
01
#255000
b10 d
b11111111 '
b11111111 :
b11111111 D
b11111111 \
b1100 "
b1100 ?
b11 e
b1100 ,
b1100 7
b1100 G
b1100 L
b1100 N
11
#260000
01
#265000
b1 d
b11111111 '
b11111111 :
b11111111 D
b11111111 \
b10 e
11
#270000
01
#275000
b0 d
b11111111 '
b11111111 :
b11111111 D
b11111111 \
b1 e
11
#280000
01
#285000
b10 d
b101 `
b11111111 '
b11111111 :
b11111111 D
b11111111 \
b0 e
11
#290000
01
#295000
b1 d
b0 '
b0 :
b0 D
b0 \
b10 e
b101 a
11
#300000
01
#305000
b0 d
b1 e
11
#310000
01
#315000
b110 `
b0 e
11
#320000
01
#325000
b1 `
b10 b
1$
1!
b110 a
11
#330000
01
#335000
b10 #
b10 >
b10 %
b10 B
b10 _
1)
0$
0!
b10 c
b1 a
11
#340000
01
#345000
b10100 H"
b10001 q
b110010000 r
b10001 x
b110010000 y
b10001 !"
b110010000 ""
b10001 ("
b110010000 )"
b10001 /"
b110010000 0"
b10001 6"
b110010000 7"
b10001 ="
b110010000 >"
b10001 D"
b110010000 E"
b10100 J"
b10 d
b10 `
b110010000 p
b110010000 w
b110010000 ~
b110010000 '"
b110010000 ."
b110010000 5"
b110010000 <"
b110010000 C"
16
b10100 l
b10100 m
b10100 s
b10100 t
b10100 z
b10100 {
b10100 #"
b10100 $"
b10100 *"
b10100 +"
b10100 1"
b10100 2"
b10100 8"
b10100 9"
b10100 ?"
b10100 @"
b10100 2
b10100 <
b10100 f
b10100 i
b10100 F"
1)
b10 #
b10 >
b10 %
b10 B
b10 _
11
15
b1 0
b1 8
b1 S
b10000 4
b10000 =
b10000 T
b10000 G"
#350000
01
#355000
b0 @
b0 U
b0 N"
b10100 A
b10100 V
b10100 M"
b10 e
b10 a
0)
b0 #
b0 >
b0 %
b0 B
b0 _
b1 d
b10 `
11
05
#360000
01
#365000
b0 d
b1 e
06
11
#370000
01
#375000
b11 `
b0 e
11
#380000
01
#385000
b100 d
b100 `
b1 ]
b11 a
11
#390000
01
#395000
b100 P
b100 O
b1000 R
b11 d
b11111111 *
b11111111 9
b11111111 F
b11111111 [
b11111111 g
b1 &
b1 ;
b1 C
b1 K
b1 W
b1 ^
b1 h
b100 e
b100 a
11
#400000
01
#405000
b100 "
b100 ?
b110010000100 P
b110010000000 Q
b1000 R
b100 ,
b100 7
b100 G
b100 L
b100 N
b110010000 B"
b110010000 ;"
b110010000 4"
b110010000 -"
b110010000 &"
b110010000 }
b110010000 v
b110010000 o
b11 e
b11111111 *
b11111111 9
b11111111 F
b11111111 [
b11111111 g
b10 d
11
b10 0
b10 8
b10 S
#410000
01
#415000
b1 d
b11111111 *
b11111111 9
b11111111 F
b11111111 [
b11111111 g
b110010000100 "
b110010000100 ?
b10 e
b110010000100 ,
b110010000100 7
b110010000100 G
b110010000100 L
b110010000100 N
11
#420000
01
#425000
b0 d
b11111111 *
b11111111 9
b11111111 F
b11111111 [
b11111111 g
b1 e
11
#430000
01
#435000
b10 d
b101 `
b11111111 *
b11111111 9
b11111111 F
b11111111 [
b11111111 g
b0 e
11
#440000
01
#445000
b1 d
b0 *
b0 9
b0 F
b0 [
b0 g
b10 e
b101 a
11
#450000
01
#455000
b0 d
b1 e
11
#460000
01
#465000
b110 `
b0 e
11
#470000
01
#475000
b1 `
b11 b
1$
1!
b110 a
11
#480000
01
#485000
b11 #
b11 >
b11 %
b11 B
b11 _
1)
0$
0!
b11 c
b1 a
11
#490000
01
#495000
b10000000 H"
b110100 q
b11111100000010 r
b110100 x
b11111100000010 y
b110100 !"
b11111100000010 ""
b110100 ("
b11111100000010 )"
b110100 /"
b11111100000010 0"
b110100 6"
b11111100000010 7"
b110100 ="
b11111100000010 >"
b110100 D"
b11111100000010 E"
b1 J"
b1111111 I"
b10 d
b10 `
b111111111111110000000000000001 p
b111111111111110000000000000001 w
b111111111111110000000000000001 ~
b111111111111110000000000000001 '"
b111111111111110000000000000001 ."
b111111111111110000000000000001 5"
b111111111111110000000000000001 <"
b111111111111110000000000000001 C"
16
b111111111111111 l
b111111111111111 m
b111111111111111 s
b111111111111111 t
b111111111111111 z
b111111111111111 {
b111111111111111 #"
b111111111111111 $"
b111111111111111 *"
b111111111111111 +"
b111111111111111 1"
b111111111111111 2"
b111111111111111 8"
b111111111111111 9"
b111111111111111 ?"
b111111111111111 @"
b111111111111111 2
b111111111111111 <
b111111111111111 f
b111111111111111 i
b111111111111111 F"
1)
b11 #
b11 >
b11 %
b11 B
b11 _
11
15
b0 4
b0 =
b0 T
b0 G"
b100000000 P"
#500000
01
#505000
b10 e
b10 a
b10000000 A
b10000000 V
b10000000 M"
0)
b0 #
b0 >
b0 %
b0 B
b0 _
b1 d
b10 `
11
05
#510000
01
#515000
b0 d
b1 e
06
11
#520000
01
#525000
b11 `
b0 e
11
#530000
01
#535000
b100 d
b100 `
b10 ]
b11 a
11
#540000
01
#545000
b110010000000 P
b0 O
b1000 R
b110010000000 Q
b11 d
b11111111 *
b11111111 9
b11111111 F
b11111111 [
b11111111 g
b10 &
b10 ;
b10 C
b10 K
b10 W
b10 ^
b10 h
b100 e
b100 a
11
#550000
01
#555000
b10 d
b11111111 *
b11111111 9
b11111111 F
b11111111 [
b11111111 g
b111111111111110000000000000001000 P
b1000 R
b111111111111110000000000000001000 Q
b110010000000 "
b110010000000 ?
b11 e
b111111111111110000000000000001 o
b111111111111110000000000000001 v
b111111111111110000000000000001 }
b111111111111110000000000000001 &"
b111111111111110000000000000001 -"
b111111111111110000000000000001 4"
b111111111111110000000000000001 ;"
b111111111111110000000000000001 B"
b110010000000 ,
b110010000000 7
b110010000000 G
b110010000000 L
b110010000000 N
11
#560000
01
#565000
b1111111111111111 "
b1111111111111111 ?
b1 d
b11111111 *
b11111111 9
b11111111 F
b11111111 [
b11111111 g
1(
1E
b1111111111111111111111111111111 ,
b1111111111111111111111111111111 7
b1111111111111111111111111111111 G
b1111111111111111111111111111111 L
b1111111111111111111111111111111 N
b10 e
11
#570000
01
#575000
b0 d
b11111111 *
b11111111 9
b11111111 F
b11111111 [
b11111111 g
b1 e
11
#580000
01
#585000
b10 d
b101 `
b11111111 *
b11111111 9
b11111111 F
b11111111 [
b11111111 g
b0 e
11
#590000
01
#595000
b1 d
b0 *
b0 9
b0 F
b0 [
b0 g
b10 e
b101 a
11
#600000
01
#605000
b0 d
b1 e
11
#610000
01
#615000
b110 `
b0 e
11
#620000
01
#625000
b1 `
b100 b
1$
1!
b110 a
11
#630000
01
#635000
b100 #
b100 >
b100 %
b100 B
b100 _
1)
0$
0!
b100 c
b1 a
11
#640000
01
#645000
b111110 J"
b1110000 H"
b100001 q
b1100011001000 r
b100001 x
b1100011001000 y
b100001 !"
b1100011001000 ""
b100001 ("
b1100011001000 )"
b100001 /"
b1100011001000 0"
b100001 6"
b1100011001000 7"
b100001 ="
b1100011001000 >"
b100001 D"
b1100011001000 E"
b110010 I"
b10 d
b10 `
b1010000100000101101100000100 p
b1010000100000101101100000100 w
b1010000100000101101100000100 ~
b1010000100000101101100000100 '"
b1010000100000101101100000100 ."
b1010000100000101101100000100 5"
b1010000100000101101100000100 <"
b1010000100000101101100000100 C"
b11111111 @
b11111111 U
b11111111 N"
16
b11001011000010 l
b11001011000010 m
b11001011000010 s
b11001011000010 t
b11001011000010 z
b11001011000010 {
b11001011000010 #"
b11001011000010 $"
b11001011000010 *"
b11001011000010 +"
b11001011000010 1"
b11001011000010 2"
b11001011000010 8"
b11001011000010 9"
b11001011000010 ?"
b11001011000010 @"
b11001011000010 2
b11001011000010 <
b11001011000010 f
b11001011000010 i
b11001011000010 F"
1)
b100 #
b100 >
b100 %
b100 B
b100 _
11
15
b100000000 R"
b0 0
b0 8
b0 S
b10010010 4
b10010010 =
b10010010 T
b10010010 G"
#650000
01
#655000
b1110000 A
b1110000 V
b1110000 M"
b10 e
b10 a
0)
b0 #
b0 >
b0 %
b0 B
b0 _
b1 d
b10 `
11
05
#660000
01
#665000
b0 d
b1 e
06
11
#670000
01
#675000
b11 `
b0 e
11
#680000
01
#685000
b100 d
b100 `
b0 ]
b11 a
11
#690000
01
#695000
b111111111111110000000000000010100 P
b1100 O
b1000 R
b111111111111110000000000000001000 Q
b11 d
b11111111 '
b11111111 :
b11111111 D
b11111111 \
b0 &
b0 ;
b0 C
b0 K
b0 W
b0 ^
b0 h
b100 e
b100 a
11
#700000
01
#705000
b10 d
b11111111 '
b11111111 :
b11111111 D
b11111111 \
b11 e
11
#710000
01
#715000
b1 d
b11111111 '
b11111111 :
b11111111 D
b11111111 \
b10 e
11
#720000
01
#725000
b0 d
b11111111 '
b11111111 :
b11111111 D
b11111111 \
b1 e
11
#730000
01
#735000
b10 d
b101 `
b11111111 '
b11111111 :
b11111111 D
b11111111 \
b0 e
11
#740000
01
#745000
b1 d
b0 '
b0 :
b0 D
b0 \
b10 e
b101 a
11
#750000
01
#755000
b0 d
b1 e
11
#760000
01
#765000
b110 `
b0 e
11
#770000
01
#775000
b1 `
b101 b
1$
1!
b110 a
11
#780000
01
#785000
b101 #
b101 >
b101 %
b101 B
b101 _
1)
0$
0!
b101 c
b1 a
11
#790000
01
#795000
b1001101 J"
b11000111 H"
b10000110 q
b101000101001101 r
b10000110 x
b101000101001101 y
b10000110 !"
b101000101001101 ""
b10000110 ("
b101000101001101 )"
b10000110 /"
b101000101001101 0"
b10000110 6"
b101000101001101 7"
b10000110 ="
b101000101001101 >"
b10000110 D"
b101000101001101 E"
b1111010 I"
b10 d
b10 `
b111001011110011110000100101001 p
b111001011110011110000100101001 w
b111001011110011110000100101001 ~
b111001011110011110000100101001 '"
b111001011110011110000100101001 ."
b111001011110011110000100101001 5"
b111001011110011110000100101001 <"
b111001011110011110000100101001 C"
16
b1000011010110011 l
b1000011010110011 m
b1000011010110011 s
b1000011010110011 t
b1000011010110011 z
b1000011010110011 {
b1000011010110011 #"
b1000011010110011 $"
b1000011010110011 *"
b1000011010110011 +"
b1000011010110011 1"
b1000011010110011 2"
b1000011010110011 8"
b1000011010110011 9"
b1000011010110011 ?"
b1000011010110011 @"
b1000011010110011 2
b1000011010110011 <
b1000011010110011 f
b1000011010110011 i
b1000011010110011 F"
1)
b101 #
b101 >
b101 %
b101 B
b101 _
11
15
b100000000 R"
b10 0
b10 8
b10 S
b11001101 4
b11001101 =
b11001101 T
b11001101 G"
b1 Q"
#800000
01
#805000
b10 e
b10 a
b11000111 A
b11000111 V
b11000111 M"
0)
b0 #
b0 >
b0 %
b0 B
b0 _
b1 d
b10 `
11
05
#810000
01
#815000
b0 d
b1 e
06
11
#820000
01
#825000
b11 `
b0 e
11
#830000
01
#835000
b100 d
b100 `
b11 a
11
#840000
01
#845000
b11 d
b11111111 '
b11111111 :
b11111111 D
b11111111 \
b100 e
b100 a
11
#850000
01
#855000
b10 d
b11111111 '
b11111111 :
b11111111 D
b11111111 \
b11 e
11
#860000
01
#865000
b1 d
b11111111 '
b11111111 :
b11111111 D
b11111111 \
b10 e
11
#870000
01
#875000
b0 d
b11111111 '
b11111111 :
b11111111 D
b11111111 \
b1 e
11
#880000
01
#885000
b10 d
b101 `
b11111111 '
b11111111 :
b11111111 D
b11111111 \
b0 e
11
#890000
01
#895000
b1 d
b0 '
b0 :
b0 D
b0 \
b10 e
b101 a
11
#900000
01
#905000
b0 d
b1 e
11
#910000
01
#915000
b110 `
b0 e
11
#920000
01
#925000
b1 `
b110 b
1$
1!
b110 a
11
#930000
01
#935000
b110 #
b110 >
b110 %
b110 B
b110 _
1)
0$
0!
b110 c
b1 a
11
#940000
01
#945000
b1111110 H"
b1101011 I"
b1010100 q
b10111000100010 r
b1010100 x
b10111000100010 y
b1010100 !"
b10111000100010 ""
b1010100 ("
b10111000100010 )"
b1010100 /"
b10111000100010 0"
b1010100 6"
b10111000100010 7"
b1010100 ="
b10111000100010 >"
b1010100 D"
b10111000100010 E"
b10011 J"
b10 d
b10 `
b101100101010010001111101101001 p
b101100101010010001111101101001 w
b101100101010010001111101101001 ~
b101100101010010001111101101001 '"
b101100101010010001111101101001 ."
b101100101010010001111101101001 5"
b101100101010010001111101101001 <"
b101100101010010001111101101001 C"
b0 @
b0 U
b0 N"
16
b1001010100010011 l
b1001010100010011 m
b1001010100010011 s
b1001010100010011 t
b1001010100010011 z
b1001010100010011 {
b1001010100010011 #"
b1001010100010011 $"
b1001010100010011 *"
b1001010100010011 +"
b1001010100010011 1"
b1001010100010011 2"
b1001010100010011 8"
b1001010100010011 9"
b1001010100010011 ?"
b1001010100010011 @"
b1001010100010011 2
b1001010100010011 <
b1001010100010011 f
b1001010100010011 i
b1001010100010011 F"
1)
b110 #
b110 >
b110 %
b110 B
b110 _
11
15
b100000000 R"
b1 0
b1 8
b1 S
b10110010 4
b10110010 =
b10110010 T
b10110010 G"
b10 Q"
#950000
01
#955000
b11111111 @
b11111111 U
b11111111 N"
b1111110 A
b1111110 V
b1111110 M"
b10 e
b10 a
0)
b0 #
b0 >
b0 %
b0 B
b0 _
b1 d
b10 `
11
05
#960000
01
#965000
b0 d
b1 e
06
11
#970000
01
#975000
b11 `
b0 e
11
#980000
01
#985000
b100 d
b100 `
b11 a
11
#990000
01
#995000
b11 d
b11111111 '
b11111111 :
b11111111 D
b11111111 \
b100 e
b100 a
11
#1000000
01
#1005000
b10 d
b11111111 '
b11111111 :
b11111111 D
b11111111 \
b11 e
11
#1010000
01
#1015000
b1 d
b11111111 '
b11111111 :
b11111111 D
b11111111 \
b10 e
11
#1020000
01
#1025000
b0 d
b11111111 '
b11111111 :
b11111111 D
b11111111 \
b1 e
11
#1030000
01
#1035000
b10 d
b101 `
b11111111 '
b11111111 :
b11111111 D
b11111111 \
b0 e
11
#1040000
01
#1045000
b1 d
b0 '
b0 :
b0 D
b0 \
b10 e
b101 a
11
#1050000
01
#1055000
b0 d
b1 e
11
#1060000
01
#1065000
b110 `
b0 e
11
#1070000
01
#1075000
b1 `
b111 b
1$
1!
b110 a
11
#1080000
01
#1085000
b111 #
b111 >
b111 %
b111 B
b111 _
1)
0$
0!
b111 c
b1 a
11
#1090000
01
#1095000
b1110001 H"
b101110 I"
b100110 q
b1100111001101 r
b100110 x
b1100111001101 y
b100110 !"
b1100111001101 ""
b100110 ("
b1100111001101 )"
b100110 /"
b1100111001101 0"
b100110 6"
b1100111001101 7"
b100110 ="
b1100111001101 >"
b100110 D"
b1100111001101 E"
b1000011 J"
b10 d
b10 `
b1000001010111111110110001001 p
b1000001010111111110110001001 w
b1000001010111111110110001001 ~
b1000001010111111110110001001 '"
b1000001010111111110110001001 ."
b1000001010111111110110001001 5"
b1000001010111111110110001001 <"
b1000001010111111110110001001 C"
b0 @
b0 U
b0 N"
16
b1101001001000011 l
b1101001001000011 m
b1101001001000011 s
b1101001001000011 t
b1101001001000011 z
b1101001001000011 {
b1101001001000011 #"
b1101001001000011 $"
b1101001001000011 *"
b1101001001000011 +"
b1101001001000011 1"
b1101001001000011 2"
b1101001001000011 8"
b1101001001000011 9"
b1101001001000011 ?"
b1101001001000011 @"
b1101001001000011 2
b1101001001000011 <
b1101001001000011 f
b1101001001000011 i
b1101001001000011 F"
1)
b111 #
b111 >
b111 %
b111 B
b111 _
11
15
b100000000 R"
b10 0
b10 8
b10 S
b100 4
b100 =
b100 T
b100 G"
b11 Q"
#1100000
01
#1105000
b10 e
b10 a
b1110001 A
b1110001 V
b1110001 M"
0)
b0 #
b0 >
b0 %
b0 B
b0 _
b1 d
b10 `
11
05
#1110000
01
#1115000
b0 d
b1 e
06
11
#1120000
01
#1125000
b11 `
b0 e
11
#1130000
01
#1135000
b100 d
b100 `
b10 ]
b11 a
11
#1140000
01
#1145000
b111111111111110000000000000001000 P
b0 O
b1000 R
b111111111111110000000000000001000 Q
b11 d
b11111111 *
b11111111 9
b11111111 F
b11111111 [
b11111111 g
b10 &
b10 ;
b10 C
b10 K
b10 W
b10 ^
b10 h
b100 e
b100 a
11
#1150000
01
#1155000
b10 d
b11111111 *
b11111111 9
b11111111 F
b11111111 [
b11111111 g
b1000001010111111110110001001000 P
b1000 R
b1000001010111111110110001001000 Q
b11 e
b1000001010111111110110001001 o
b1000001010111111110110001001 v
b1000001010111111110110001001 }
b1000001010111111110110001001 &"
b1000001010111111110110001001 -"
b1000001010111111110110001001 4"
b1000001010111111110110001001 ;"
b1000001010111111110110001001 B"
11
#1160000
01
#1165000
b1110110001001000 "
b1110110001001000 ?
b1 d
b11111111 *
b11111111 9
b11111111 F
b11111111 [
b11111111 g
0(
0E
b1000001010111111110110001001000 ,
b1000001010111111110110001001000 7
b1000001010111111110110001001000 G
b1000001010111111110110001001000 L
b1000001010111111110110001001000 N
b10 e
11
#1170000
01
#1175000
b0 d
b11111111 *
b11111111 9
b11111111 F
b11111111 [
b11111111 g
b1 e
11
